…
``` r
transitdata <- transitdata %>% 
  mutate_at(vars("Route Destination", "Route Name", "Pass-Up Type"), as.factor)

## I know this next bit of code is inefficient so i have to trouble shoot it later.
transitdata <- transitdata %>% 
  dplyr::rename(RouteDestination = `Route Destination`) %>%
  dplyr::rename(RouteName = `Route Name`) %>%
  dplyr::rename(PassUpType = `Pass-Up Type`) %>%
  dplyr::rename(RouteNumber = `Route Number`) %>%
  dplyr::rename(PassUpID = `Pass-Up ID`)
tibble(transitdata)
```

    ## # A tibble: 115,520 x 1
    ##    transitdata$Pas~ $PassUpType $Time $RouteNumber $RouteName
    ##               <dbl> <fct>       <chr>        <dbl> <fct>     
    ##  1          2934796 Wheelchair~ 06/2~           16 Selkirk-O~
    ##  2          2934787 Full Bus P~ 06/2~           15 Sargent-M~
    ##  3          2934745 Full Bus P~ 06/2~           14 St. Mary'~
    ##  4          2934683 Full Bus P~ 06/2~           21 Portage E~
    ##  5          2934614 Full Bus P~ 06/2~          162 Ft. Richm~
    ##  6          2934585 Full Bus P~ 06/2~           21 Portage E~
    ##  7          2934512 Full Bus P~ 06/2~           21 Portage E~
    ##  8          2934474 Wheelchair~ 06/2~           21 Portage E~
    ##  9          2934449 Full Bus P~ 06/2~           55 St.Anne's 
    ## 10          2934412 Full Bus P~ 06/2~           11 Portage-K~
    ## # ... with 115,510 more rows, and 2 more variables:
    ## #   $RouteDestination <fct>, $Location <chr>
…
UPDATE 07-31-2019: definitely by practice, cleaning and visualizing data
is a circular process.

``` r
transitdata <- transitdata %>%
  separate(Location, into = c("Extra", "Lat1", "Long1"), sep = " ") %>%
  separate(Lat1, into = c("Extra1", "Latitude"), sep = 1) %>%
  separate(Long1, into = c("Longitude", "Extra2"), sep = -1) %>%
  select(-Extra, -Extra1, -Extra2)
tibble(transitdata)
```

    ## # A tibble: 115,520 x 1
    ##    transitdata$Pas~ $PassUpType $Time $RouteNumber $RouteName
    ##               <dbl> <fct>       <chr>        <dbl> <fct>     
    ##  1          2934796 Wheelchair~ 06/2~           16 Selkirk-O~
    ##  2          2934787 Full Bus P~ 06/2~           15 Sargent-M~
    ##  3          2934745 Full Bus P~ 06/2~           14 St. Mary'~
    ##  4          2934683 Full Bus P~ 06/2~           21 Portage E~
    ##  5          2934614 Full Bus P~ 06/2~          162 Ft. Richm~
    ##  6          2934585 Full Bus P~ 06/2~           21 Portage E~
    ##  7          2934512 Full Bus P~ 06/2~           21 Portage E~
    ##  8          2934474 Wheelchair~ 06/2~           21 Portage E~
    ##  9          2934449 Full Bus P~ 06/2~           55 St.Anne's 
    ## 10          2934412 Full Bus P~ 06/2~           11 Portage-K~
    ## # ... with 115,510 more rows, and 3 more variables:
    ## #   $RouteDestination <fct>, $Latitude <chr>, $Longitude <chr>
